"Resource/HudLayout.res"
{

// G-Mang HUD Public Beta 31
// http://code.google.com/p/gmang-tf2hud/
	
	"HudAchievementTracker"
	{
		"ControlName"	"EditablePanel"
		"fieldName"		"HudAchievementTracker"
		"xpos"			"0"
		"NormalY"		"0"
		"EngineerY"		"0" //ENGINEERTRACKER change to 170
		"zpos"			"2"
		"wide"			"f0"
		"tall"			"480"
		"visible"		"1"
		"enabled"		"1"	
	}
	
	HudPlayerStatus
	{
		"fieldName" "HudPlayerStatus"
		"visible" "1"
		"enabled" "1"
		"xpos"	"0"
		"ypos"	"0"
		"wide"	"f0"
		"tall"	"480"
	}

	HudWeaponAmmo
	{
		"fieldName" "HudWeaponAmmo"
		"visible" "1"
		"enabled" "1"
		"xpos"	"0"
		"ypos"	"0"
		"wide"	"f0"
		"tall"	"480"
	}
	
	HudObjectiveStatus
	{
		"fieldName" "HudObjectiveStatus"
		"visible" "1"
		"enabled" "1"
		"xpos"	"0"
		"ypos"	"-7"
		"wide"	"f0"
		"tall"	"480"
	}	
	
	HudKothTimeStatus
	{
		"fieldName" "HudKothTimeStatus"
		"visible" "1"
		"enabled" "1"
		"xpos"	"c-100"
		"ypos"	"0"
		"wide"	"200"
		"tall"	"60"
		"blue_active_xpos"	"58"
		"red_active_xpos"	"108"
	}	

	HudItemEffectMeter
	{
		"fieldName"		"HudItemEffectMeter"
		"visible"		"1"
		"enabled"		"1"
		"xpos"	"0"
		"ypos"	"0"
		"wide"			"f0"
		"tall"			"480"
		"MeterFG"		"White"
		"MeterBG"		"Gray"
	}
	
	HudMedicCharge
	{
		"fieldName"		"HudMedicCharge"
		"visible"		"1"
		"enabled"		"1"
		"xpos"			"0"
		"ypos"			"0"
		"wide"			"f0"
		"tall"			"480"
	}
	
	HudDemomanCharge
	{
		"fieldName"		"HudDemomanCharge"
		"visible"		"1"
		"enabled"		"1"
		"xpos"	"0"
		"ypos"	"13"
		"zpos"			"1"
		"wide"	"f0"
		"tall"			"480"
		"MeterFG"		"White"
		"MeterBG"		"Gray"
	}	

	HudBowCharge
	{
		"fieldName"		"HudBowCharge"
		"visible"		"1"
		"enabled"		"1"
		"xpos"	"0"
		"ypos"	"0"
		"zpos"			"1"
		"wide"	"f0"
		"tall"			"480"
		"MeterFG"		"White"
		"MeterBG"		"Gray"
	}	

	HudFlameRocketCharge
	{
		"fieldName"		"HudFlameRocketCharge"
		"visible"		"1"
		"enabled"		"1"
		"xpos"			"r52"
		"ypos"			"r40"
		"zpos"			"1"			// draw in front of ammo
		"wide"			"60"
		"wide_minmode"	"50"
		"tall"			"8"
		"MeterFG"		"White"
		"MeterBG"		"Gray"
	}

	HudBossHealth
	{
		"fieldName"		"HudBossHealth"
		"visible"		"1"
		"enabled"		"1"
		"xpos"			"c-100"
		"ypos"			"42"
		"zpos"			"0"			// draw in front of ammo
		"wide"			"200"
		"tall"			"50"
		"MeterFG"		"Red"
		"MeterBG"		"Gray"
	}

	HudWeaponSelection
	{
		"fieldName" "HudWeaponSelection"
		"xpos"	"0"
		"wide"	"f0"
		"ypos" 	"0"
		"tall"	"480"
		"RightMargin" "0"
		"visible" "1"
		"enabled" "1"
		"SmallBoxWide" "72"
		"SmallBoxTall" "54"
		"PlusStyleBoxWide" "90"
		"PlusStyleBoxTall" "63"
		"PlusStyleExpandSelected"	"0.3"
		"LargeBoxWide" "110"
		"LargeBoxTall" "77"
		"BoxGap" "4"
		"SelectionNumberXPos" "12"
		"SelectionNumberYPos" "4"
		"IconXPos" "8"
		"IconYPos" "0"
		"TextYPos" "70"
		"ErrorYPos" "48"
		"TextColor" "SelectionTextFg"
		"MaxSlots"	"6"
		"PlaySelectSounds"	"1"
		"Alpha" "220"
		"SelectionAlpha" "220"
		"BoxColor" "WeaponBoxColor"
		"SelectedBoxClor" "WeaponSelectBoxColor"
		"SelectionNumberFg"	"WeaponSelectionDefault"
		"NumberFont" "HudSelectionText"
	}	
	
	CHudAccountPanel
	{
		"fieldName"				"CHudAccountPanel"
		"xpos"					"c-45"
		"ypos"					"r228"
		"wide"					"116"
		"tall"  				"180"
		"visible" 				"1"
		"enabled" 				"1"
		"PaintBackgroundType"	"2"
	}
	
	CHealthAccountPanel
	{
		"fieldName"				"CHealthAccountPanel"
		"xpos"			"c-200"
		"ypos"			"0"
		"wide"					"400"
		"tall"  				"480"
		"visible" 				"1"
		"enabled" 				"1"
		"PaintBackgroundType"	"2"
	}

	CDamageAccountPanel
	{
		"fieldName"				"CDamageAccountPanel"
		"xpos"					"0"
		"ypos"					"0"
		"wide"					"f0"
		"tall"					"480"
		"visible" 				"1"
		"enabled" 				"1"
		"PaintBackgroundType"	"2"
	}
	
	DisguiseStatus
	{
		"fieldName" "DisguiseStatus"
		"visible"	"1"
		"enabled"	"1"
		"xpos"		"0"
		"ypos"		"0"
		"wide"		"f0"
		"tall"		"480"
	}

	CMainTargetID
	{
		"fieldName" 	"CMainTargetID"
		"visible" 	"0"
		"enabled" 	"1"
		"xpos"		"c-126"
		"ypos"		"r197"
		"wide"	 	"252"
		"tall"	 	"26"
		"priority"	"40"
	}
	
	CSpectatorTargetID
	{
		"fieldName" 	"CSpectatorTargetID"
		"visible" 	"0"
		"enabled" 	"1"
		"xpos"		"c-126"
		"ypos"		"r197"
		"wide"	 	"252"
		"tall"	 	"26"
		"priority"	"40"
		
		"x_offset" "20" //UBERUPDATE
		"y_offset" "20"
	}
	
	CSecondaryTargetID
	{
		"fieldName" 	"CSecondaryTargetID"
		"visible" 	"0"
		"enabled" 	"1"
		"xpos"		"c-126"
		"ypos"		"r169"
		"wide"	 	"252"
		"tall"	 	"26"
		"priority"	"35"
	}
	
	BuildingStatus_Spy
	{
		"fieldName" "BuildingStatus_Spy"
		"visible"	"1"
		"enabled"	"1"
		"xpos"		"-20"	
		"ypos"		"0"	
		"wide"		"640"
		"tall"		"480"
		"PaintBackgroundType"	"2"
	}
	
	BuildingStatus_Engineer
	{
		"fieldName" "BuildingStatus_Engineer"
		"visible"	"1"
		"enabled"	"1"
		"xpos"		"-20"
		"ypos"		"0"
		"wide"		"640"
		"tall"		"480"
		"PaintBackgroundType"	"2"
	}
	
	HudMannVsMachineStatus
	{
		"fieldName" "HudMannVsMachineStatus"
		"visible"	"1"
		"enabled"	"1"
		"xpos"		"0"
		"ypos"		"0"
		"zpos"		"1"
		"wide"		"f0"
		"tall"		"480"
		
		"PaintBackgroundType"	"2"
	}
	
	HudProgressBar
	{
		"fieldName" "HudProgressBar"
		"xpos"	"c-150"
		"ypos"	"300"
		"wide"	"300"
		"tall"  "15"
		"visible" "1"
		"enabled" "1"
		"BorderThickness" "1"
		"PaintBackgroundType"	"2"
	}

	HudRoundTimer
	{
		"fieldName" "HudRoundTimer"
		"xpos"	"c-20"
		"ypos"	"440"
		"wide"	"120"
		"tall"  "40"
		"visible" "1"
		"enabled" "1"
		"PaintBackgroundType"	"2"
		"FlashColor" "HudIcon_Red"		
		"icon_xpos"		"0"
		"icon_ypos"		"2"
		"digit_xpos"	"34"
		"digit_ypos"	"2"
	}

	HudScenarioIcon 
	{
		"fieldName" "HudScenarioIcon"
		"xpos"	"c110"
		"ypos"	"443"
		"wide"	"40"
		"tall"  "44"
		"visible" "1"
		"enabled" "1"
		"PaintBackgroundType"	"2"
		"IconColor"				"Hostage_Yellow"	
	}
	
	HudFlashlight
	{
		"fieldName" "HudFlashlight"
		"visible" "1"
		"enabled" "1"
		"xpos"	"16"
		"ypos"	"370"
		"wide"	"102"
		"tall"	"20"
		"text_xpos" "8"
		"text_ypos" "6"
		"TextColor"	"255 170 0 220"
		"PaintBackgroundType"	"2"
	}

	HudDamageIndicator
	{

	}

	HudCommentary
	{
		"fieldName" "HudCommentary"
		"xpos"	"c-190"
		"ypos"	"320"
		"wide"	"380"
		"tall"  "50"
		"visible" "1"
		"enabled" "1"
		
		"PaintBackgroundType"	"2"
		"BackgroundOverrideColor" "0 0 0 128"
		
		"bar_xpos"		"50"
		"bar_ypos"		"20"
		"bar_height"	"8"
		"bar_width"		"320"
		"speaker_xpos"	"50"
		"speaker_ypos"	"8"
		"count_xpos_from_right"	"10"	// Counts from the right side
		"count_ypos"	"8"
		
		"icon_texture"	"vgui/hud/icon_commentary"
		"icon_xpos"		"0"
		"icon_ypos"		"0"		
		"icon_width"	"40"
		"icon_height"	"40"

		"use_script_bgcolor"	"1"
	}

	HudZoom
	{
		"fieldName" "HudZoom"
		"visible" "1"
		"enabled" "1"
		"Circle1Radius" "66"
		"Circle2Radius"	"74"
		"DashGap"	"16"
		"DashHeight" "4"
		"BorderThickness" "88"
	}

	HudCrosshair
	{
		"fieldName" "HudCrosshair"
		"visible" "1"
		"enabled" "1"
		"wide"	 "640"
		"tall"	 "480"
	}

	HudDeathNotice
	{
		"fieldName" "HudDeathNotice"
		"visible" "1"
		"enabled" "1"
		"xpos"	 "r640"
		"ypos"	 "10"
		"wide"	 "628"
		"tall"	 "468"

		"MaxDeathNotices" "8"
		"IconScale"	  "0.35"
		"LineHeight"	  "13"
		"LineSpacing"	  "1"
		"CornerRadius"	  "3"
		"MaxDeathNotices_minmode" "12"
		"IconScale_minmode"	  "0.35"
		"LineHeight_minmode"	  "14"
		"LineSpacing_minmode"	  "2"
		"CornerRadius_minmode"	  "3"
		"RightJustify"	  "1"	// If 1, draw notices from the right
		
		"TextFont"		"Default"
		
		"TeamBlue"		"KillBoardBlue"
		"TeamRed"		"KillBoardRed"
		"IconColor"		"HudWhite"
		"LocalPlayerColor"	"KillBoardSelfText"

		"BaseBackgroundColor"	"KillBoardBlack"
		"BaseBackgroundColor_minmode"	"KillBoardBlackMM"
		"LocalBackgroundColor"	"KillBoardWhite"
		"LocalBackgroundColor_minmode"	"KillBoardWhiteMM"
	}

	HudVehicle
	{
		"fieldName" "HudVehicle"
		"visible" "1"
		"enabled" "1"
		"wide"	 "640"
		"tall"	 "480"
	}

	CVProfPanel
	{
		"fieldName" "CVProfPanel"
		"visible" "1"
		"enabled" "1"
		"wide"	 "640"
		"tall"	 "480"
	}

	ScorePanel
	{
		"fieldName" "ScorePanel"
		"visible" "1"
		"enabled" "1"
		"wide"	 "640"
		"tall"	 "480"
	}

	HudTrain
	{
		"fieldName" "HudTrain"
		"visible" "1"
		"enabled" "1"
		"wide"	 "640"
		"tall"	 "480"
	}

	HudMOTD
	{
		"fieldName" "HudMOTD"
		"visible" "1"
		"enabled" "1"
		"wide"	 "640"
		"tall"	 "480"
	}

	HudMessage
	{
		"fieldName" "HudMessage"
		"visible" "1"
		"enabled" "1"
		"wide"	 "640"
		"tall"	 "480"
	}

	HudMenu
	{
		"fieldName" "HudMenu"
		"visible" "1"
		"enabled" "1"
		"wide"	 "640"
		"tall"	 "480"
		"zpos" "1"

		"TextFont"				"Default"
		"ItemFont"				"Default"
		"ItemFontPulsing"		"Default"

	}

	HudCloseCaption
	{
		"fieldName" "HudCloseCaption"
		"visible"	"1"
		"enabled"	"1"
		"xpos"		"r185"
		"ypos"		"280"
		"wide"		"175"
		"tall"		"136"

		"BgAlpha"	"128"

		"GrowTime"		"0.00"
		"ItemHiddenTime"	"0.00"  // Nearly same as grow time so that the item doesn't start to show until growth is finished
		"ItemFadeInTime"	"0.00"	// Once ItemHiddenTime is finished, takes this much longer to fade in
		"ItemFadeOutTime"	"0.00"
		"topoffset"		"0"
	}

	HudHistoryResource 
	{
		"fieldName" "HudHistoryResource"
		"visible" "0"
		"enabled" "0"
		"xpos"	 "r640"
		"wide"	 "640"
		"tall"	 "330"
		"history_gap" "55"
	}

	HudGeiger
	{
		"fieldName" "HudGeiger"
		"visible" "1"
		"enabled" "1"
		"wide"	 "640"
		"tall"	 "480"
	}

	HUDQuickInfo
	{
		"fieldName" "HUDQuickInfo"
		"visible" "1"
		"enabled" "1"
		"wide"	 "640"
		"tall"	 "480"
	}

	HudWeapon
	{
		"fieldName" "HudWeapon"
		"visible" "1"
		"enabled" "1"
		"wide"	 "640"
		"tall"	 "480"
	}
	HudAnimationInfo
	{
		"fieldName" "HudAnimationInfo"
		"visible" "1"
		"enabled" "1"
		"wide"	 "640"
		"tall"	 "480"
	}
	CBudgetPanel
	{
		"fieldName" "CBudgetPanel"
		"visible" "1"
		"enabled" "1"
		"wide"	 "640"
		"tall"	 "480"
	}
	CTextureBudgetPanel
	{
		"fieldName" "CTextureBudgetPanel"
		"visible" "1"
		"enabled" "1"
		"wide"	 "640"
		"tall"	 "480"
	}

	HudPredictionDump
	{
		"fieldName" "HudPredictionDump"
		"visible" "1"
		"enabled" "1"
		"wide"	 "1280"
		"tall"	 "1024"
	}


	HudLocation
	{
		"fieldName" "HudLocation"
		"visible"	"1"
		"enabled"	"1"
		"xpos"		"16"
		"ypos"		"112"
		"wide"		"96"
		"tall"		"16"
		"textAlignment"	"north"
	}

	HudScope
	{
		"fieldName" "HudScope"
		"visible" "1"
		"enabled" "1"
		"wide"	 "640"
		"tall"	 "480"
	}
	
	HudScopeCharge
	{
		"fieldName" "HudScopeCharge"
		"visible" "1"
		"enabled" "1"
		"xpos"	 "c64"
		"ypos"	 "c-64"
		"wide"	 "64"
		"tall"	 "128"
	}
	
	HudVoiceSelfStatus
	{
		"fieldName" "HudVoiceSelfStatus"
		"visible" "1"
		"enabled" "1"
		"xpos" "r42"
		"ypos" "355"
		"wide" "32"
		"tall" "32"
	}

	HudVoiceStatus
	{
		"fieldName" "HudVoiceStatus"
		"visible" "1"
		"enabled" "1"
		"xpos" "r161"
		"ypos" "0"
		"wide" "145"
		"tall" "380"

		"item_wide"	"145"
		
		"show_avatar"		"1"
		
		"show_dead_icon"	"1"
		"dead_xpos"			"29"
		"dead_ypos"			"0"
		"dead_wide"			"16"
		"dead_tall"			"16"
		
		"show_voice_icon"	"0"
		"icon_ypos"			"0"
		"icon_xpos"			"16"
		"icon_tall"			"16"
		"icon_wide"			"16"
		
		"text_xpos"			"46"
		
		"avatar_xpos"		"0"
	}

	HudHintDisplay
	{
		"fieldName"				"HudHintDisplay"
		"visible"				"0"
		"enabled"				"1"
		"xpos"					"c-240"
		"ypos"					"c60"
		"wide"					"480"
		"tall"					"100"
		"HintSize"				"1"
		"text_xpos"				"8"
		"text_ypos"				"8"
		"center_x"				"0"	// center text horizontally
		"center_y"				"-1"	// align text on the bottom
	}	

	HudHintKeyDisplay
	{
		"fieldName"	"HudHintKeyDisplay"
		"visible"	"0"
		"enabled" 	"1"
		"xpos"		"r120"
		"ypos"		"r340"
		"wide"		"100"
		"tall"		"200"
		"text_xpos"	"8"
		"text_ypos"	"8"
		"text_xgap"	"8"
		"text_ygap"	"8"
		"TextColor"	"255 170 0 220"

		"PaintBackgroundType"	"2"
	}
	
	overview
	{
		"fieldname" "overview"
		"visible"	"1"
		"enabled" "1"
		"xpos"	"0"
		"ypos"	"0"
		"wide"	"640"
		"tall"	"480"
	}
	
	VguiScreenCursor
	{
		"fieldName" "VguiScreenCursor"
		"visible" "1"
		"enabled" "1"
		"wide"	 "640"
		"tall"	 "480"
	}

	HudControlPointIcons
	{
		"fieldName"				"HudControlPointIcons"
		"xpos"					"0"
		"ypos"					"410"
		"wide"					"f0"
		"tall"					"200"
		"visible"				"1"
		"enabled"				"1"
		"separator_width"		"6"	// distance between the icons (including their backgrounds)
		"separator_height"		"2"
		"height_offset"			"0" // distance from the bottom of the panel
	}

	HudCapturePanel
	{
		"fieldName"				"HudCapturePanel"
		"xpos"					"c-75"
		"ypos"					"c80"
		"wide"					"150"
		"tall"					"90"
		"visible"				"1"
		"enabled"				"1"
		"icon_space"			"2"
	}
	
	HUDAutoAim
	{

	}	
	
	HudHDRDemo
	{

	}

	WinPanel
	{
		"fieldName"				"WinPanel"
		"visible"				"1"
		"enabled"				"1"
		"xpos"					"c-120"
		"ypos"					"c9"
		"wide"					"240"
		"tall"					"215"
		"zpos"					"999"
	}


	ArenaWinPanel
	{
		"fieldName"				"ArenaWinPanel"
		"visible"				"1"
		"enabled"				"1"
		"xpos"					"c-180"
		"ypos"					"c9"
		"wide"					"360"
		"tall"					"215"
	}
	
	PVEWinPanel
	{
		"fieldName"				"PVEWinPanel"
		"visible"				"1"
		"enabled"				"1"
		"xpos"					"c-150"
		"ypos"					"r275"
		"wide"					"300"
		"tall"					"215"
	}

	StatPanel
	{
		"fieldName"				"StatPanel"
		"visible"				"1"
		"enabled"				"1"
		"xpos"					"c-133"
		"ypos"				"270"
		"wide"					"266"
		"tall"					"120"
	}
	
	FreezePanel
	{
		"fieldName"				"FreezePanel"
		"visible"				"1"
		"enabled"				"1"
		"xpos"					"0"
		"ypos"					"0"
		"wide"					"f0"
		"tall"					"480"
	}

	FreezePanelCallout
	{
		"fieldName"				"FreezePanelCallout"
		"visible"				"1"
		"enabled"				"1"
		"xpos"					"200"
		"ypos"					"200"
		"wide"					"100"
		"tall"					"50"
	}

	WaitingForPlayersPanel
	{
		"fieldName"				"WaitingForPlayersPanel"
		"visible"				"0"
		"enabled"				"1"
		"xpos"					"c-146"
		"ypos"					"10"
		"wide"					"292"
		"tall"					"64"
	}
	
	"HudUpgradePanel"
	{
		"fieldName"		"HudUpgradePanel"
		"visible"		"0"
		"enable"		"1"
		"xpos"			"c-200"
		"ypos"			"260"
		"wide"			"400"
		"tall"			"160"		
	}

	"HudChat"
	{
		"ControlName"		"EditablePanel"
		"fieldName" 		"HudChat"
		"visible" 		"1"
		"enabled" 		"1"
		"xpos"			"10"
		"ypos"			"275"
		"wide"	 		"320"
		"tall"	 		"120"
		"PaintBackgroundType"	"2"
	}
	
	"HudMenuEngyBuild"
	{
		"fieldName" 	"HudMenuEngyBuild"
		"visible" 		"1"
		"enabled" 		"1"
		"xpos"			"c-225"
		"ypos"			"c-55"
		"wide"			"450"
		"tall"			"195"
		"PaintBackgroundType"	"0"
	}
	
	"HudMenuEngyDestroy"
	{
		"fieldName" 	"HudMenuEngyDestroy"
		"visible" 		"1"
		"enabled" 		"1"
		"xpos"			"c-225"
		"ypos"			"c-59"
		"wide"			"450"
		"tall"			"200"
		"PaintBackgroundType"	"0"
	}
	
	"HudMenuSpyDisguise"
	{
		"fieldName" 	"HudMenuSpyDisguise"
		"visible" 		"1"
		"enabled" 		"1"
		"xpos"			"c-235"
		"ypos"			"c-52"
		"wide"			"470"
		"tall"			"200"
		"PaintBackgroundType"	"0"
	}	
	
	HudDemomanPipes
	{
		"fieldName"		"HudDemomanPipes"
		"visible"		"1"
		"enabled"		"1"
		"xpos"	"0"
		"ypos"	"13"
		"wide"			"f0"
		"tall"			"480"
	}	

	HudTeamGoal
	{
		"fieldName"				"HudTeamGoal"
		"visible"				"1"
		"enabled"				"1"
		"xpos"					"c-160"
		"ypos"					"9965"
		"wide"					"320"
		"tall"					"100"
	}


	HudTeamGoalTournament
	{
		"fieldName"				"HudTeamGoalTournament"
		"visible"				"1"
		"enabled"				"1"
		"xpos"					"c-160"
		"ypos"					"15"
		"wide"					"320"
		"tall"					"245"
	}

	HudTeamSwitch
	{
		"fieldName"				"HudTeamSwitch"
		"visible"				"0"
		"enabled"				"1"
		"xpos"					"c-160"
		"ypos"					"75"
		"wide"					"320"
		"tall"					"100"
	}

	HudArenaNotification
	{
		"fieldName"				"HudArenaNotification"
		"visible"				"0"
		"enabled"				"1"
		"xpos"					"c-160"
		"ypos"					"75"
		"wide"					"320"
		"tall"					"150"
	}

	HudArenaCapPointCountdown
	{
		"fieldName"				"HudArenaCapPointCountdown"
		"visible"				"1"
		"enabled"				"1"
		"xpos"					"c-14"
		"ypos"					"443"
		"wide"					"30"
		"tall"					"30"
		"zpos"					"99"
	}

	HudStalemate
	{
		"fieldName"				"HudStalemate"
		"visible"				"0"
		"enabled"				"1"
		"xpos"					"c-160"
		"ypos"					"65"
		"wide"					"320"
		"tall"					"100"
	}
	HudTournament
	{
		"fieldName"				"HudTournament"
		"visible"				"0"
		"enabled"				"1"
		"xpos"					"c-125"
		"ypos"					"5"
		"zpos"					"2"
		"wide"					"250"
		"tall"					"80"
	}

	HudTournamentSetup
	{
		"fieldName"				"HudTournamentSetup"
		"visible"				"0"
		"enabled"				"1"
		"xpos"					"c-90"
		"ypos"					"-70"
		"wide"					"180"
		"tall"					"65"
	}

	HudStopWatch
	{
		"fieldName"				"HudStopWatch"
		"visible"				"1"
		"enabled"				"1"
		"xpos"					"0"
		"ypos"				"0"
		"wide"					"f0"
		"tall"					"480"
	}
	
	NotificationPanel
	{
		"fieldName"				"NotificationPanel"
		"visible"				"1"
		"enabled"				"1"
		"xpos"					"c-320"
		"ypos"					"300"
		"wide"					"640"
		"tall"					"100"
	}

	AchievementNotificationPanel	
	{
		"fieldName"				"AchievementNotificationPanel"
		"visible"				"1"
		"enabled"				"1"
		"xpos"					"0"
		"ypos"					"180"
		"wide"					"f10"
		"tall"					"100"
	}

	CriticalPanel
	{
		"fieldName"				"CriticalPanel"		
		"visible"				"1"
		"enabled"				"1"
		"xpos"					"r155"
		"ypos"					"r75"
		"wide"					"150"
		"tall"					"25"
	}
	
	HudArenaClassLayout
	{
		"fieldName"				"HudArenaClassLayout"		
		"visible"				"1"
		"enabled"				"1"
		"xpos"					"0"
		"ypos"					"c20"
		"wide"					"f0"
		"tall"					"320"
	}
	
	HudArenaVsPanel
	{
		"fieldName"				"HudArenaVsPanel"		
		"visible"				"1"
		"enabled"				"1"
		"xpos"					"0"
		"ypos"					"240"
		"wide"					"f0"
		"tall"					"240"
	}
	
	HudArenaPlayerCount
	{
		"fieldName"				"HudArenaPlayerCount"		
		"visible"				"1"
		"enabled"				"1"
		"xpos"					"0"
		"ypos"					"-21"
		"wide"					"f0"
		"tall"					"50"
	}	

	HudInspectPanel
	{
		"fieldName"				"HudInspectPanel"
		"visible"				"0"
		"enabled"				"1"
		"xpos"					"r270"
		"ypos"					"300"
		"zpos"					"10"
		"wide"					"270"
		"tall"					"180"
	}
	
	HudTFCrosshair
	{
		"fieldName" "HudTFCrosshair"
		"visible" "1"
		"enabled" "1"
		"wide"	 "640"
		"tall"	 "480"
	}
	ItemQuickSwitchPanel
	{
		"fieldName"				"ItemQuickSwitchPanel"
		"visible"				"0"
		"enabled"				"1"
		"xpos"			"0"
		"ypos"			"0"
		"wide"			"f0"
		"tall"			"480"
	}

	ReplayReminder
	{
		"fieldName"		"ReplayReminder"
		"visible"		"0"
		"enable"		"1"
	}

	MainMenuAdditions
	{
		"fieldName"		"MainMenuAdditions"
		"visible"		"1"
		"enabled"		"1"
		"xpos"			"c0"
		"ypos"			"310"
		"zpos"			"0"
		"wide"			"300"
		"tall"			"100"
	}

	CoachedByPanel
	{
		"fieldName"		"CoachedByPanel"
		"visible"		"0"
		"enable"		"1"
		"xpos"			"5"
		"ypos"			"10"
		"wide"			"250"
		"tall"			"44"
	}

	ItemTestHUDPanel
	{
		"fieldName"		"ItemTestHUDPanel"
		"visible"		"0"
		"enable"		"1"
		"xpos"			"5"
		"ypos"			"10"
		"wide"			"150"
		"tall"			"44"
	}

	NotificationQueuePanel
	{
		"fieldName"		"NotificationQueuePanel"
		"visible"		"0"
		"enable"		"1"
		"xpos"			"r155"
		"ypos"			"r90"
		"zpos"			"100"
		"wide"			"200"
		"tall"			"0"
	}

	"CHudVote"
	{
		"fieldName"		"CHudVote"
		"xpos"			"0"			
		"ypos"			"0"
		"wide"			"640"
		"tall"			"480"
		"visible"		"1"
		"enabled"		"1"
		"bgcolor_override"	"0 0 0 0"
		"PaintBackgroundType"	"0" // rounded corners
	}

	"HudAlert"
	{
		"fieldName"		"HudAlert"
		"visible"		"0"
		"enable"		"1"
		"xpos"			"c-160"
		"ypos"			"100"
		"wide"			"320"
		"tall"			"150"
	}
		"CTFStreakNotice"
	{
		"fieldName"		"CTFStreakNotice"
		"xpos"			"0"			
		"ypos"			"0"
		"wide"			"640"
		"tall"			"480"
		"visible"		"1"
		"enabled"		"1"
		"bgcolor_override"	"0 0 0 0"
		"PaintBackgroundType"	"0" 
	}
	
	"HudMenuTauntSelection"
	{
		"fieldName"		"HudMenuTauntSelection"
		"visible"		"1"
		"enable"		"1"
		"xpos"			"c-235"
		"ypos"			"r300"
		"wide"			"640"
		"tall"			"480"
	}
	
		"HudMiniGame"
	{
		"fieldName" "HudMiniGame"
		"visible" "1"
		"enabled" "1"
		"xpos"	"0"
		"ypos"	"0"
		"wide"	"f0"
		"tall"	"480"
	}

		"ItemAttributeTracker"
    {
		"fieldName"         "ItemAttributeTracker"
		"visible"                 "1"
		"enabled"                 "1"
		"xpos"                        "0"
		"ypos"                        "0"
		"wide"                        "f5"
		"tall"                        "f0"
		"PaintBackgroundType"        "0"
    }
 "QuestNotificationPanel"
    {
		"fieldName"        "QuestNotificationPanel"
		"visible" "1"
		"enabled" "1"
		"xpos"        "0"
		"ypos"        "0"
		"wide"        "f0"
		"tall"        "f0"
    }

    "QuestLogContainer"
    {
		"ControlName"                "EditablePanel"
		"fieldName"                 "QuestLogContainer"
		"visible"                 "1"
		"enabled"                 "1"
		"xpos"                        "0"
		"ypos"                        "0"
		"wide"                         "f0"
		"tall"                         "f0"
    }

	"MatchMakingContainer"
	{
		"ControlName"		"EditablePanel"
		"fieldName" 		"MatchMakingContainer"
		"visible" 		"1"
		"enabled" 		"1"
		"xpos"			"0"
		"ypos"			"0"
		"wide"	 		"f0"
		"tall"	 		"f0"
	}

	HudSpectatorExtras
	{
		"fieldName" "HudSpectatorExtras"
		"visible" "1"
		"enabled" "1"
		"xpos"	"0"
		"ypos"	"0"
		"wide"	"f0"
		"tall"	"f0"
	}	
	
}
