"Resource/UI/LobbyContainerFrame.res"
{
	"LobbyContainerFrame"
	{
		"ControlName"	"EditablePanel"
		"fieldName"		"LobbyContainerFrame"
		"xpos"			"0"
		"ypos"			"0"
		"wide"			"f0"
		"tall"			"480"
		"autoResize"	"0"
		"pinCorner"		"0"
		"visible"		"1"
		"enabled"		"1"
		"tabPosition"	"0"
		"settitlebarvisible"	"1"
		"PaintBackgroundType"	"0"
		"bgcolor_override"				"46 43 42 0"
		"infocus_bgcolor_override"		"46 43 42 0"
		"outoffocus_bgcolor_override"	"46 43 42 0"
		
		"title"			"#CharInfoAndSetup"
		"title_font"	"HudFontMediumBold"
		"titletextinsetX"	"40"
		"titletextinsetY"	"0"
		"titlebarfgcolor_override"				"200 187 161 255"
		"titlebardisabledfgcolor_override"		"200 187 161 255"
		"titlebarbgcolor_override"				"46 43 42 255"
		
		"clientinsetx_override"			"0"
		"sheetinset_bottom"				"40"

		"NavToRelay"			"BackButton"
	}
	
	"BackgroundHeader"
	{
		"ControlName"	"ImagePanel"
		"fieldName"		"BackgroundHeader"
		"xpos"			"0"
		"ypos"			"0"
		"zpos"			"-2"
		"wide"			"f0"
		"tall"			"120"
		"visible"		"1"
		"enabled"		"1"
		"image"			"loadout_bottom_gradient"
		"tileImage"		"1"
	}				
	"BackgroundFooter"
	{
		"ControlName"	"ImagePanel"
		"fieldName"		"BackgroundFooter"
		"xpos"			"0"
		"ypos"			"420"
		"zpos"			"1"
		"wide"			"f0"
		"tall"			"60"
		"visible"		"1"
		"enabled"		"1"
		"image"			"loadout_bottom_gradient"
		"tileImage"		"1"
	}				
	"FooterLine"
	{
		"ControlName"	"ImagePanel"
		"fieldName"		"FooterLine"
		"xpos"			"0"
		"ypos"			"420"
		"zpos"			"2"
		"wide"			"f0"
		"tall"			"10"
		"visible"		"0"
		"enabled"		"1"
		"image"			"loadout_solid_line"
		"scaleImage"	"1"
	}				
	
	"Sheet"
	{
		"ControlName"	"EditablePanel"
		"fieldName"		"Sheet"
		"tabxindent"	"80"
		"tabxdelta"		"10"
		"tabwidth"		"240"
		"tabheight"		"34"
		"transition_time" "0"
		
		"HeaderLine"
		{
			"ControlName"	"ImagePanel"
			"fieldName"		"HeaderLine"
			"xpos"			"0"
			"ypos"			"32"
			"zpos"			"5"
			"wide"			"f0"
			"tall"			"10"
			"visible"		"0"
			"enabled"		"1"
			"image"			"loadout_solid_line"
			"scaleImage"	"1"
		}				
		
		"tabskv"
		{
			"textinsetx"		"40"
			"font"				"HudFontMediumBold"
			"selectedcolor"		"200 187 161 255"
			"unselectedcolor"	"130 120 104 255"	
			"defaultBgColor_override"	"46 43 42 255"
			"paintbackground"	"0"
			"activeborder_override"	"OutlinedGreyBox"
			"normalborder_override" "OutlinedDullGreyBox"
		}
	}

	"BackButton"
	{
		"ControlName"	"CExButton"
		"fieldName"		"BackButton"
		"xpos"			"c-305"
		"ypos"			"437"
		"zpos"			"2"
		"wide"			"180"
		"tall"			"25"
		"autoResize"	"0"
		"pinCorner"		"3"
		"visible"		"1"
		"enabled"		"1"
		"tabPosition"	"0"
		"font"			"HudFontSmallBold"
		"textAlignment"	"center"
		"dulltext"		"0"
		"brighttext"	"0"
		"Command"		"back"

		"NavUp"			"PlayNowButton"
		"NavRight"		"LearnMoreButton"

		"sound_depressed"	"UI/buttonclick.wav"
		"sound_released"	"UI/buttonclickrelease.wav"
	}

	"WaitingForLeaderLabel"
	{
		"ControlName"		"CExLabel"
		"fieldName"		"WaitingForLeaderLabel"
		"font"			"HudFontSmall"
		"xpos"		"c+35"
		"ypos"		"410"
		"zpos"			"2"
		"wide"		"300"
		"tall"		"80"
		"textAlignment"	"east"
		"visible"	"1"
		"enabled"	"1"
		"labeltext"	"#TF_Matchmaking_LobbyLeaderMustStart"
	}

	"NotificationsPresentPanel"
	{
		"ControlName"	"CNotificationsPresentPanel"
		"fieldName"		"NotificationsPresentPanel"
		"xpos"			"r200"
		"ypos"			"10"
		"zpos"			"10000"
		"wide"			"190"
		"tall"			"50"
		"visible"		"0"
		"enabled"		"1"
	}

	"LearnMoreButton"
	{
		"ControlName"	"CExImageButton"
		"fieldName"		"LearnMoreButton"
		"xpos"			"c-101"
		"ypos"			"437"
		"zpos"			"2"
		"wide"			"195"
		"tall"			"25"
		"autoResize"	"0"
		//"pinCorner"		"3"
		"visible"		"1"
		"enabled"		"1"
		"tabPosition"	"0"
		"labelText"		"#TF_MvM_LearnMore"
		"font"			"HudFontSmallBold"
		"textAlignment"	"center"
		"dulltext"		"0"
		"brighttext"	"0"
		"Command"		"learn_more"

		"NavUp"			"PracticeButton"
		"NavLeft"		"BackButton"
		"NavRight"		"NextButton"

		"sound_depressed"	"UI/buttonclick.wav"
		"sound_released"	"UI/buttonclickrelease.wav"
	}

	"NextButton"
	{
		"ControlName"	"CExImageButton"
		"fieldName"		"NextButton"
		"xpos"			"c+120"
		"ypos"			"437"
		"zpos"			"2"
		"wide"			"180"
		"tall"			"25"
		"autoResize"	"0"
		//"pinCorner"		"3"
		"visible"		"1"
		"enabled"		"1"
		"tabPosition"	"0"
		"font"			"HudFontSmallBold"
		"textAlignment"	"center"
		"dulltext"		"0"
		"brighttext"	"0"
		"Command"		"next"

		"NavUp"			"StartPartyButton"
		"NavDown"		"LearnMoreButton"
		"NavLeft"		"LearnMoreButton"

		"sound_depressed"	"UI/buttonclick.wav"
		"sound_released"	"UI/buttonclickrelease.wav"
	}

	"PlayNowButton"
	{
		"ControlName"	"CExButton"
		"fieldName"		"PlayNowButton"
		"xpos"			"c-295"
		"ypos"			"303"
		"zpos"			"20"
		"wide"			"180"
		"tall"			"40"
		"autoResize"	"0"
		"pinCorner"		"0"
		"visible"		"1"
		"enabled"		"1"
		"tabPosition"	"0"
		"labelText"		"#TF_MvM_MannUp"
		"font"			"HudFontMediumBold"
		"textAlignment"	"center"
		"textinsetx"	"50"
		"dulltext"		"0"
		"brighttext"	"0"
		"Command"		"mannup"

		"NavUp"			"Sheet"
		"NavDown"		"BackButton"
		"NavLeft"		"Sheet"
		"NavRight"		"PracticeButton"

		"sound_depressed"	"UI/buttonclick.wav"
		"sound_released"	"UI/buttonclickrelease.wav"

		"border_default"	"MainMenuButtonDefault"
		"border_armed"		"MainMenuButtonArmed"
		"paintbackground"	"0"
			
		"defaultFgColor_override" "46 43 42 255"
		"armedFgColor_override" "235 226 202 255"
		"depressedFgColor_override" "46 43 42 255"
	}

	"MannUpDisabledLabel"
	{
		"ControlName"	"CExLabel"
		"fieldName"		"MannUpDisabledLabel"
		"font"			"HudFontSmall"
		"labelText"		"#TF_Matchmaking_MannUpDisabled"
		"textAlignment"	"center"
		"xpos"			"c-295"
		"ypos"			"300"
		"zpos"			"30"
		"wide"			"180"
		"tall"			"40"
		"wrap"				   "1"
		"centerwrap"		   "1"
		"PaintBackgroundType"	"0"
		"bgcolor_override"				"0 0 0 240"
	}

	"PracticeButton"
	{
		"ControlName"	"CExButton"
		"fieldName"		"PracticeButton"
		"xpos"			"c-95"
		"ypos"			"303"
		"zpos"			"20"
		"wide"			"180"
		"tall"			"40"
		"autoResize"	"0"
		"pinCorner"		"0"
		"visible"		"1"
		"enabled"		"1"
		"tabPosition"	"0"
		"labelText"		"#TF_MvM_BootCamp"
		"font"			"HudFontMediumBold"
		"textAlignment"	"center"
		"textinsetx"	"50"
		"dulltext"		"0"
		"brighttext"	"0"
		"Command"		"practice"

		"NavUp"			"Sheet"
		"NavDown"		"LearnMoreButton"
		"NavLeft"		"PlayNowButton"
		"NavRight"		"StartPartyButton"

		"sound_depressed"	"UI/buttonclick.wav"
		"sound_released"	"UI/buttonclickrelease.wav"

		"border_default"	"MainMenuButtonDefault"
		"border_armed"		"MainMenuButtonArmed"
		"paintbackground"	"0"
			
		"defaultFgColor_override" "46 43 42 255"
		"armedFgColor_override" "235 226 202 255"
		"depressedFgColor_override" "46 43 42 255"
	}

	"PlayWithFriendsExplanation"
	{
		"ControlName"	"EditablePanel"
		"fieldName"		"PlayWithFriendsExplanation"
		"xpos"			"c+100"
		"ypos"			"72"
		"zpos"			"8"
		"wide"			"200"
		"tall"			"285"
		"PaintBackgroundType"	"0"
		"paintbackground"		"1"
		"bgcolor_override"	"0 0 0 200"
		"border"		"NoBorder"

		"PlayWithFriendsExplanationTitle"
		{
			"ControlName"	"CExLabel"
			"fieldName"		"PlayWithFriendsExplanationTitle"
			"font"			"HudFontSmallBold"
			"labelText"		"#TF_Matchmaking_PlayWithFriends"
			"textAlignment"	"center"
			"xpos"			"0"
			"ypos"			"0"
			"zpos"			"10"
			"wide"			"200"
			"tall"			"32"
		}

		"FriendsImage"
		{
			"ControlName"	"ImagePanel"
			"fieldName"		"FriendsImage"
			"xpos"			"10"
			"ypos"			"32"
			"zpos"			"0"
			"wide"			"180"
			"tall"			"90"
			"visible"		"1"
			"enabled"		"1"
			"image"			"pve/mvm_friends_image"
			"scaleImage"	"1"
		}

		"PlayWithFriendsExplanationLabel"
		{
			"ControlName"	"CExLabel"
			"fieldName"		"PlayWithFriendsExplanationLabel"
			"font"			"HudFontSmall"
			"labelText"		"#TF_MvM_PlayWithFriendsExplanation"
			"textAlignment"	"north-west"
			"xpos"			"10"
			"ypos"			"130"
			"zpos"			"10"
			"wide"			"180"
			"tall"			"150"
			"wrap"			"1"
		}
	}

	"StartPartyButton"
	{
		"ControlName"	"CExButton"
		"fieldName"		"StartPartyButton"
		"xpos"			"c+110"
		"ypos"			"320"
		"zpos"			"10"
		"wide"			"180"
		"tall"			"25"
		"autoResize"	"0"
		"pinCorner"		"0"
		"visible"		"1"
		"enabled"		"1"
		"tabPosition"	"0"
		"labelText"		"#TF_Matchmaking_StartParty"
		"font"			"HudFontSmallBold"
		"textAlignment"	"center"
		"textinsetx"	"50"
		"dulltext"		"0"
		"brighttext"	"0"
		"Command"		"start_party"

		if_competitive
		{
			"xpos"			"c+120"
			"ypos"			"375"
		}

		"NavUp"			"Sheet"
		"NavDown"		"NextButton"
		"NavLeft"		"PracticeButton"

		"sound_depressed"	"UI/buttonclick.wav"
		"sound_released"	"UI/buttonclickrelease.wav"
	}

	"StartExplanation"
	{
		"ControlName"	"CExplanationPopup"
		"fieldName"		"StartExplanation"
		"xpos"			"0"
		"ypos"			"0"
		"zpos"			"10000"
		"wide"			"250"
		"tall"			"100"
		"visible"		"0"
		"PaintBackgroundType"	"2"
		"paintbackground" "0"
		"border"		"MainMenuHighlightBorder"
		
		"force_close"	"1"
		"end_x"			"c-300"
		"end_y"			"100"
		"end_wide"		"300"
		"end_tall"		"175"
		"callout_inparents_x"	"c-270"
		"callout_inparents_y"	"380"
		"next_explanation"		"VoucherExplanation"
		
		"TitleLabel"
		{
			"ControlName"	"CExLabel"
			"fieldName"		"TitleLabel"
			"font"			"HudFontSmallBold"
			"labelText"		"#TF_MvM_TicketExplanation_Title"
			"textAlignment"	"north"
			"xpos"			"20"
			"ypos"			"10"
			"wide"			"260"
			"tall"			"30"
			"autoResize"	"0"
			"pinCorner"		"0"
			"visible"		"1"
			"enabled"		"1"
			"wrap"			"1"
			"fgcolor_override" "46 43 42 255"
		}
		
		"TextLabel"
		{
			"ControlName"	"CExLabel"
			"fieldName"		"TextLabel"
			"font"			"HudFontSmall"
			"labelText"		"#TF_MvM_TicketExplanation_Text"
			"textAlignment"	"north-west"
			"xpos"			"20"
			"ypos"			"45"
			"wide"			"260"
			"tall"			"105"
			"autoResize"	"0"
			"pinCorner"		"0"
			"visible"		"1"
			"enabled"		"1"
			"wrap"			"1"
			"fgcolor_override" "46 43 42 255"
		}
		
		"CloseButton"
		{
			"ControlName"	"CExImageButton"
			"fieldName"		"CloseButton"
			"xpos"			"280"
			"ypos"			"5"
			"zpos"			"10"
			"wide"			"14"
			"tall"			"14"
			"autoResize"	"0"
			"pinCorner"		"0"
			"visible"		"1"
			"enabled"		"1"
			"tabPosition"	"0"
			"labeltext"		""
			"font"			"HudFontSmallBold"
			"textAlignment"	"center"
			"dulltext"		"0"
			"brighttext"	"0"
			"default"		"0"
			"sound_depressed"	"UI/buttonclick.wav"
			"sound_released"	"UI/buttonclickrelease.wav"
			"Command"		"close"
			
			"paintbackground"	"0"
			
			"defaultFgColor_override" "46 43 42 255"
			"armedFgColor_override" "200 80 60 255"
			"depressedFgColor_override" "46 43 42 255"
			
			"image_drawcolor"	"117 107 94 255"
			"image_armedcolor"	"200 80 60 255"
			"SubImage"
			{
				"ControlName"	"ImagePanel"
				"fieldName"		"SubImage"
				"xpos"			"0"
				"ypos"			"0"
				"zpos"			"1"
				"wide"			"14"
				"tall"			"14"
				"visible"		"1"
				"enabled"		"1"
				"image"			"close_button"
				"scaleImage"	"1"
			}				
		}			
		"PositionLabel"
		{
			"ControlName"	"CExLabel"
			"fieldName"		"PositionLabel"
			"font"			"HudFontSmallBold"
			"labelText"		"%explanationnumber%"
			"textAlignment"	"center"
			"xpos"			"0"
			"ypos"			"145"
			"zpos"			"-1"
			"wide"			"300"
			"tall"			"30"
			"autoResize"	"0"
			"pinCorner"		"0"
			"visible"		"1"
			"enabled"		"1"
			"fgcolor_override" "200 80 60 255"
		}
		"NButton"
		{
			"ControlName"	"CExImageButton"
			"fieldName"		"NButton"
			"xpos"			"260"
			"ypos"			"145"
			"zpos"			"10"
			"wide"			"30"
			"tall"			"30"
			"autoResize"	"0"
			"pinCorner"		"0"
			"visible"		"1"
			"enabled"		"1"
			"tabPosition"	"0"
			"labeltext"		""
			"font"			"HudFontSmallBold"
			"textAlignment"	"center"
			"dulltext"		"0"
			"brighttext"	"0"
			"default"		"1"
			"sound_depressed"	"UI/buttonclick.wav"
			"sound_released"	"UI/buttonclickrelease.wav"
			"Command"		"nextexplanation"
			
			"paintbackground"	"0"
			
			"defaultFgColor_override" "46 43 42 255"
			"armedFgColor_override" "200 80 60 255"
			"depressedFgColor_override" "46 43 42 255"
			
			"image_drawcolor"	"235 226 202 255"
			"image_armedcolor"	"255 255 255 255"
			"SubImage"
			{
				"ControlName"	"ImagePanel"
				"fieldName"		"SubImage"
				"xpos"			"0"
				"ypos"			"0"
				"zpos"			"1"
				"wide"			"30"
				"tall"			"30"
				"visible"		"1"
				"enabled"		"1"
				"image"			"blog_forward"
				"scaleImage"	"1"
			}				
		}	
	}

	"VoucherExplanation"
	{
		"ControlName"	"CExplanationPopup"
		"fieldName"		"VoucherExplanation"
		"xpos"			"0"
		"ypos"			"0"
		"zpos"			"10000"
		"wide"			"250"
		"tall"			"100"
		"visible"		"0"
		"PaintBackgroundType"	"2"
		"paintbackground" "0"
		"border"		"MainMenuHighlightBorder"
		
		"force_close"	"1"
		"end_x"			"c-300"
		"end_y"			"100"
		"end_wide"		"300"
		"end_tall"		"175"
		"callout_inparents_x"	"c-270"
		"callout_inparents_y"	"340"
		//"next_explanation"		"VoucherExplanation"
		
		"TitleLabel"
		{
			"ControlName"	"CExLabel"
			"fieldName"		"TitleLabel"
			"font"			"HudFontSmallBold"
			"labelText"		"#TF_MvM_VoucherExplanation_Title"
			"textAlignment"	"north"
			"xpos"			"20"
			"ypos"			"10"
			"wide"			"260"
			"tall"			"30"
			"autoResize"	"0"
			"pinCorner"		"0"
			"visible"		"1"
			"enabled"		"1"
			"wrap"			"1"
			"fgcolor_override" "46 43 42 255"
		}
		
		"TextLabel"
		{
			"ControlName"	"CExLabel"
			"fieldName"		"TextLabel"
			"font"			"HudFontSmall"
			"labelText"		"#TF_MvM_VoucherExplanation_Text"
			"textAlignment"	"north-west"
			"xpos"			"20"
			"ypos"			"45"
			"wide"			"260"
			"tall"			"105"
			"autoResize"	"0"
			"pinCorner"		"0"
			"visible"		"1"
			"enabled"		"1"
			"wrap"			"1"
			"fgcolor_override" "46 43 42 255"
		}
		
		"CloseButton"
		{
			"ControlName"	"CExImageButton"
			"fieldName"		"CloseButton"
			"xpos"			"280"
			"ypos"			"5"
			"zpos"			"10"
			"wide"			"14"
			"tall"			"14"
			"autoResize"	"0"
			"pinCorner"		"0"
			"visible"		"1"
			"enabled"		"1"
			"tabPosition"	"0"
			"labeltext"		""
			"font"			"HudFontSmallBold"
			"textAlignment"	"center"
			"dulltext"		"0"
			"brighttext"	"0"
			"default"		"0"
			"sound_depressed"	"UI/buttonclick.wav"
			"sound_released"	"UI/buttonclickrelease.wav"
			"Command"		"close"
			
			"paintbackground"	"0"
			
			"defaultFgColor_override" "46 43 42 255"
			"armedFgColor_override" "200 80 60 255"
			"depressedFgColor_override" "46 43 42 255"
			
			"image_drawcolor"	"117 107 94 255"
			"image_armedcolor"	"200 80 60 255"
			"SubImage"
			{
				"ControlName"	"ImagePanel"
				"fieldName"		"SubImage"
				"xpos"			"0"
				"ypos"			"0"
				"zpos"			"1"
				"wide"			"14"
				"tall"			"14"
				"visible"		"1"
				"enabled"		"1"
				"image"			"close_button"
				"scaleImage"	"1"
			}				
		}
		"PButton"
		{
			"ControlName"	"CExImageButton"
			"fieldName"		"PButton"
			"xpos"			"10"
			"ypos"			"145"
			"zpos"			"10"
			"wide"			"30"
			"tall"			"30"
			"autoResize"	"0"
			"pinCorner"		"0"
			"visible"		"1"
			"enabled"		"1"
			"tabPosition"	"0"
			"labeltext"		""
			"font"			"HudFontSmallBold"
			"textAlignment"	"center"
			"dulltext"		"0"
			"brighttext"	"0"
			"default"		"0"
			"sound_depressed"	"UI/buttonclick.wav"
			"sound_released"	"UI/buttonclickrelease.wav"
			"Command"		"prevexplanation"
			
			"paintbackground"	"0"
			
			"defaultFgColor_override" "46 43 42 255"
			"armedFgColor_override" "200 80 60 255"
			"depressedFgColor_override" "46 43 42 255"
			
			"image_drawcolor"	"235 226 202 255"
			"image_armedcolor"	"255 255 255 255"
			"SubImage"
			{
				"ControlName"	"ImagePanel"
				"fieldName"		"SubImage"
				"xpos"			"0"
				"ypos"			"0"
				"zpos"			"1"
				"wide"			"30"
				"tall"			"30"
				"visible"		"1"
				"enabled"		"1"
				"image"			"blog_back"
				"scaleImage"	"1"
			}				
		}		
		"PositionLabel"
		{
			"ControlName"	"CExLabel"
			"fieldName"		"PositionLabel"
			"font"			"HudFontSmallBold"
			"labelText"		"%explanationnumber%"
			"textAlignment"	"center"
			"xpos"			"0"
			"ypos"			"145"
			"zpos"			"-1"
			"wide"			"300"
			"tall"			"30"
			"autoResize"	"0"
			"pinCorner"		"0"
			"visible"		"1"
			"enabled"		"1"
			"fgcolor_override" "200 80 60 255"
		}	
	}
}
